<svg id="Calque_1" data-name="Calque 1" xmlns="http://www.w3.org/2000/svg" viewBox="0 0 448 392">
  <defs>
    <style>
      .cls-1 {
        fill: #af289d;
      }
    </style>
  </defs>
  <path class="cls-1" d="M16,132H432a16,16,0,0,0,16-16V76a16,16,0,0,0-16-16H16A16,16,0,0,0,0,76v40A16,16,0,0,0,16,132Zm0,160H432a16,16,0,0,0,16-16V236a16,16,0,0,0-16-16H16A16,16,0,0,0,0,236v40A16,16,0,0,0,16,292Zm0,160H432a16,16,0,0,0,16-16V396a16,16,0,0,0-16-16H16A16,16,0,0,0,0,396v40A16,16,0,0,0,16,452Z" transform="translate(0 -60)"/>
</svg>
